<?xml version="1.0" encoding="utf-8"?>
<!-- Generator: Adobe Illustrator 19.1.0, SVG Export Plug-In . SVG Version: 6.00 Build 0)  -->
<svg version="1.1" id="Layer_1" xmlns="http://www.w3.org/2000/svg" xmlns:xlink="http://www.w3.org/1999/xlink" x="0px" y="0px"
	 viewBox="0 0 49.5 49.9" style="enable-background:new 0 0 49.5 49.9;" xml:space="preserve">
<g>
	<path fill="currentColor" d="M15.9,20.5L22.5,0C18,0.4,13.8,1.9,10.3,4.3L15.9,20.5L15.9,20.5z"/>
	<path fill="currentColor" d="M31.8,1v28.9h-6.2V8.7h-0.1l-7.4,21.3h-5.1L5.8,8.9H5.7v21.1H0c2.3,11.4,12.4,20,24.5,20
		c13.8,0,25-11.2,25-25C49.5,13.6,42,4.1,31.8,1z"/>
</g>
</svg>
