<?xml version="1.0" encoding="UTF-8" standalone="no"?>
<svg width="28px" height="28px" viewBox="0 0 28 28" version="1.1" xmlns="http://www.w3.org/2000/svg" xmlns:xlink="http://www.w3.org/1999/xlink">
    <!-- Generator: Sketch 3.6.1 (26313) - http://www.bohemiancoding.com/sketch -->
    <title>icon-menu</title>
    <desc>Created with Sketch.</desc>
    <defs></defs>
    <g id="Page-1" stroke="none" stroke-width="1" fill="none" fill-rule="evenodd">
        <g id="Mobile" transform="translate(-56.000000, -25.000000)" fill="currentColor">
            <g id="header">
                <path d="M56,32 L84,32 L84,25 L56,25 L56,32 Z M56,53 L84,53 L84,46 L56,46 L56,53 Z M56,42.5 L84,42.5 L84,35.5 L56,35.5 L56,42.5 Z" id="icon-menu"></path>
            </g>
        </g>
    </g>
</svg>